W4 - RETAIN Equivalents, haven, and CDISC Pilot Data
…
Exercise 3-2: Filter SEVERE AEs

result2 <- ae_pilot %>%
  filter(AESEV == "SEVERE") %>%
  arrange(USUBJID) %>%
  select(USUBJID, AETERM, AESEV, AESTDTC)

result2

# A tibble: 43 × 4
   USUBJID     AETERM                               AESEV  AESTDTC   
   <chr>       <chr>                                <chr>  <chr>     
 1 01-701-1211 SUDDEN DEATH                         SEVERE 2013-01-14
 2 01-703-1086 APPLICATION SITE IRRITATION          SEVERE 2012-09-13
 3 01-703-1119 APPLICATION SITE IRRITATION          SEVERE 2013-03-16
 4 01-703-1119 PRURITUS                             SEVERE 2013-05-04
 5 01-703-1175 ATRIOVENTRICULAR BLOCK SECOND DEGREE SEVERE 2013-12-18
 6 01-704-1008 TRANSIENT ISCHAEMIC ATTACK           SEVERE 2013-02-21
 7 01-704-1135 RASH                                 SEVERE 2013-12-08
 8 01-704-1445 COMPLETED SUICIDE                    SEVERE 2014-10-31
 9 01-705-1393 COLON CANCER                         SEVERE 2013-01-21
10 01-706-1049 SYNCOPE                              SEVERE 2013-06-18
# ℹ 33 more rows
…
